hardware/dummy_lwc/src_rtl/out.vcd
$date
  Wed Aug  5 21:37:01 2020
$end
$version
  GHDL v0
$end
$timescale
  1 fs
$end
$scope module standard $end
$upscope $end
$scope module std_logic_1164 $end
$upscope $end
$scope module numeric_std $end
$upscope $end
$scope module textio $end
$upscope $end
$scope module std_logic_1164_additions $end
$upscope $end
$scope module nist_lwapi_pkg $end
$upscope $end
$scope module design_pkg $end
$upscope $end
$scope module std_logic_misc $end
$upscope $end
$scope module lwc_tb $end
$var reg 1 ! simulation_fails $end
$var reg 1 " stop_clock $end
$var reg 1 # global_stop $end
$var reg 1 $ clk $end
$var reg 1 % io_clk $end
$var reg 1 & rst $end
$var reg 32 ' fpdi_din[31:0] $end
$var reg 1 ( fpdi_din_valid $end
$var reg 1 ) fpdi_din_ready $end
$var reg 32 * fpdi_dout[31:0] $end
$var reg 1 + fpdi_dout_valid $end
$var reg 1 , fpdi_dout_ready $end
$var reg 32 - pdi_delayed[31:0] $end
$var reg 1 . pdi_valid $end
$var reg 1 / pdi_valid_selected $end
$var reg 1 0 pdi_ready $end
$var reg 32 1 fsdi_din[31:0] $end
$var reg 1 2 fsdi_din_valid $end
$var reg 1 3 fsdi_din_ready $end
$var reg 32 4 fsdi_dout[31:0] $end
$var reg 1 5 fsdi_dout_valid $end
$var reg 1 6 fsdi_dout_ready $end
$var reg 32 7 sdi_delayed[31:0] $end
$var reg 1 8 sdi_valid $end
$var reg 1 9 sdi_valid_selected $end
$var reg 1 : sdi_ready $end
$var reg 32 ; do[31:0] $end
$var reg 1 < do_valid $end
$var reg 1 = do_last $end
$var reg 1 > do_ready $end
$var reg 1 ? do_ready_selected $end
$var reg 1 @ fdo_din_ready $end
$var reg 1 A fdo_din_valid $end
$var reg 32 B fdo_dout[31:0] $end
$var reg 1 C fdo_dout_valid $end
$var reg 1 D fdo_dout_ready $end
$var reg 1 E stall_pdi_valid $end
$var reg 1 F stall_sdi_valid $end
$var reg 1 G stall_do_full $end
$var reg 1 H stall_msg $end
$var integer 32 I clk_cycle_counter $end
$var integer 32 J tv_count $end
$scope module genpdififo $end
$var reg 1 K clk $end
$var reg 1 L rst $end
$var reg 32 M din[31:0] $end
$var reg 1 N din_valid $end
$var reg 1 O din_ready $end
$var reg 32 P dout[31:0] $end
$var reg 1 Q dout_valid $end
$var reg 1 R dout_ready $end
$comment mem_s is not handled $end
$comment mem_s_next is not handled $end
$var reg 1 S din_ready_s $end
$var reg 1 T dout_valid_s $end
$var reg 1 U empty_s $end
$var reg 1 V full_s $end
$var integer 32 W wr_ptr_s $end
$var integer 32 X wr_ptr_s_next $end
$var integer 32 Y rd_ptr_s $end
$var integer 32 Z rd_ptr_s_next $end
$var integer 32 [ entries_s $end
$var integer 32 \ entries_s_next $end
$scope module gen_p_ptr_sync_rst $end
$upscope $end
$upscope $end
$scope module gensdififo $end
$var reg 1 ] clk $end
$var reg 1 ^ rst $end
$var reg 32 _ din[31:0] $end
$var reg 1 ` din_valid $end
$var reg 1 a din_ready $end
$var reg 32 b dout[31:0] $end
$var reg 1 c dout_valid $end
$var reg 1 d dout_ready $end
$comment mem_s is not handled $end
$comment mem_s_next is not handled $end
$var reg 1 e din_ready_s $end
$var reg 1 f dout_valid_s $end
$var reg 1 g empty_s $end
$var reg 1 h full_s $end
$var integer 32 i wr_ptr_s $end
$var integer 32 j wr_ptr_s_next $end
$var integer 32 k rd_ptr_s $end
$var integer 32 l rd_ptr_s_next $end
$var integer 32 m entries_s $end
$var integer 32 n entries_s_next $end
$scope module gen_p_ptr_sync_rst $end
$upscope $end
$upscope $end
$scope module gendofifo $end
$var reg 1 o clk $end
$var reg 1 p rst $end
$var reg 32 q din[31:0] $end
$var reg 1 r din_valid $end
$var reg 1 s din_ready $end
$var reg 32 t dout[31:0] $end
$var reg 1 u dout_valid $end
$var reg 1 v dout_ready $end
$comment mem_s is not handled $end
$comment mem_s_next is not handled $end
$var reg 1 w din_ready_s $end
$var reg 1 x dout_valid_s $end
$var reg 1 y empty_s $end
$var reg 1 z full_s $end
$var integer 32 { wr_ptr_s $end
$var integer 32 | wr_ptr_s_next $end
$var integer 32 } rd_ptr_s $end
$var integer 32 !" rd_ptr_s_next $end
$var integer 32 "" entries_s $end
$var integer 32 #" entries_s_next $end
$scope module gen_p_ptr_sync_rst $end
$upscope $end
$upscope $end
$scope module uut $end
$var reg 1 $" clk $end
$var reg 1 %" rst $end
$var reg 32 &" pdi_data[31:0] $end
$var reg 1 '" pdi_valid $end
$var reg 1 (" pdi_ready $end
$var reg 32 )" sdi_data[31:0] $end
$var reg 1 *" sdi_valid $end
$var reg 1 +" sdi_ready $end
$var reg 32 ," do_data[31:0] $end
$var reg 1 -" do_ready $end
$var reg 1 ." do_valid $end
$var reg 1 /" do_last $end
$var reg 32 0" key_cipher_in[31:0] $end
$var reg 1 1" key_valid_cipher_in $end
$var reg 1 2" key_ready_cipher_in $end
$var reg 32 3" bdi_cipher_in[31:0] $end
$var reg 1 4" bdi_valid_cipher_in $end
$var reg 1 5" bdi_ready_cipher_in $end
$var reg 4 6" bdi_pad_loc_cipher_in[3:0] $end
$var reg 4 7" bdi_valid_bytes_cipher_in[3:0] $end
$var reg 3 8" bdi_size_cipher_in[2:0] $end
$var reg 1 9" bdi_eot_cipher_in $end
$var reg 1 :" bdi_eoi_cipher_in $end
$var reg 4 ;" bdi_type_cipher_in[3:0] $end
$var reg 1 <" decrypt_cipher_in $end
$var reg 1 =" hash_cipher_in $end
$var reg 1 >" key_update_cipher_in $end
$var reg 32 ?" bdo_cipher_out[31:0] $end
$var reg 1 @" bdo_valid_cipher_out $end
$var reg 1 A" bdo_ready_cipher_out $end
$var reg 1 B" end_of_block_cipher_out $end
$var reg 4 C" bdo_valid_bytes_cipher_out[3:0] $end
$var reg 1 D" msg_auth_valid $end
$var reg 1 E" msg_auth_ready $end
$var reg 1 F" msg_auth $end
$var reg 32 G" cmd_fifo_in[31:0] $end
$var reg 1 H" cmd_valid_fifo_in $end
$var reg 1 I" cmd_ready_fifo_in $end
$var reg 32 J" cmd_fifo_out[31:0] $end
$var reg 1 K" cmd_valid_fifo_out $end
$var reg 1 L" cmd_ready_fifo_out $end
$scope module inst_preprocessor $end
$var reg 1 M" clk $end
$var reg 1 N" rst $end
$var reg 32 O" pdi_data[31:0] $end
$var reg 1 P" pdi_valid $end
$var reg 1 Q" pdi_ready $end
$var reg 32 R" sdi_data[31:0] $end
$var reg 1 S" sdi_valid $end
$var reg 1 T" sdi_ready $end
$var reg 32 U" key[31:0] $end
$var reg 1 V" key_valid $end
$var reg 1 W" key_ready $end
$var reg 32 X" bdi[31:0] $end
$var reg 1 Y" bdi_valid $end
$var reg 1 Z" bdi_ready $end
$var reg 4 [" bdi_pad_loc[3:0] $end
$var reg 4 \" bdi_valid_bytes[3:0] $end
$var reg 3 ]" bdi_size[2:0] $end
$var reg 1 ^" bdi_eot $end
$var reg 1 _" bdi_eoi $end
$var reg 4 `" bdi_type[3:0] $end
$var reg 1 a" decrypt $end
$var reg 1 b" hash $end
$var reg 1 c" key_update $end
$var reg 32 d" cmd[31:0] $end
$var reg 1 e" cmd_valid $end
$var reg 1 f" cmd_ready $end
$var reg 1 g" len_seglencnt $end
$var reg 1 h" en_seglencnt $end
$var reg 1 i" last_flit_of_segment $end
$var reg 16 j" dout_seglencnt[15:0] $end
$var reg 16 k" load_seglencnt[15:0] $end
$var reg 1 l" sel_sdi_length $end
$var reg 4 m" bdi_valid_bytes_p[3:0] $end
$var reg 4 n" bdi_pad_loc_p[3:0] $end
$var reg 1 o" received_wrong_header $end
$var reg 1 p" eoi_flag $end
$var reg 1 q" nx_eoi_flag $end
$var reg 1 r" eot_flag $end
$var reg 1 s" nx_eot_flag $end
$var reg 1 t" hash_internal $end
$var reg 1 u" nx_hash_internal $end
$var reg 1 v" decrypt_internal $end
$var reg 1 w" nx_decrypt_internal $end
$var reg 1 x" bdi_eoi_internal $end
$var reg 1 y" bdi_eot_internal $end
$scope module seglen $end
$var reg 1 z" clk $end
$var reg 1 {" len $end
$var reg 1 |" ena $end
$var reg 16 }" load[15:0] $end
$var reg 16 !# count[15:0] $end
$var reg 16 "# qtemp[15:0] $end
$upscope $end
$scope module fsm_32bit $end
$comment nx_state is not handled $end
$comment pr_state is not handled $end
$var reg 1 ## bdi_valid_p $end
$var reg 1 $# bdi_ready_p $end
$var reg 1 %# key_valid_p $end
$var reg 1 &# key_ready_p $end
$var reg 3 '# bdi_size_p[2:0] $end
$scope module keypiso $end
$var reg 1 (# clk $end
$var reg 1 )# rst $end
$var reg 32 *# data_s[31:0] $end
$var reg 1 +# data_valid_s $end
$var reg 1 ,# data_ready_s $end
$var reg 32 -# data_p[31:0] $end
$var reg 1 .# data_valid_p $end
$var reg 1 /# data_ready_p $end
$comment nx_state is not handled $end
$comment state is not handled $end
$var reg 3 0# mux[2:0] $end
$scope module ccsw32 $end
$upscope $end
$upscope $end
$scope module bdipiso $end
$var reg 1 1# clk $end
$var reg 1 2# rst $end
$var reg 3 3# data_size_p[2:0] $end
$var reg 3 4# data_size_s[2:0] $end
$var reg 32 5# data_s[31:0] $end
$var reg 1 6# data_valid_s $end
$var reg 1 7# data_ready_s $end
$var reg 32 8# data_p[31:0] $end
$var reg 1 9# data_valid_p $end
$var reg 1 :# data_ready_p $end
$var reg 4 ;# valid_bytes_p[3:0] $end
$var reg 4 <# valid_bytes_s[3:0] $end
$var reg 4 =# pad_loc_p[3:0] $end
$var reg 4 ># pad_loc_s[3:0] $end
$var reg 1 ?# eoi_p $end
$var reg 1 @# eoi_s $end
$var reg 1 A# eot_p $end
$var reg 1 B# eot_s $end
$comment nx_state is not handled $end
$comment state is not handled $end
$var reg 3 C# mux[2:0] $end
$var reg 1 D# last $end
$scope module ccw32 $end
$upscope $end
$upscope $end
$scope module gen_proc_sync_rst $end
$upscope $end
$upscope $end
$upscope $end
$scope module inst_cipher $end
$var reg 1 E# clk $end
$var reg 1 F# rst $end
$var reg 32 G# key[31:0] $end
$var reg 1 H# key_valid $end
$var reg 1 I# key_ready $end
$var reg 32 J# bdi[31:0] $end
$var reg 1 K# bdi_valid $end
$var reg 1 L# bdi_ready $end
$var reg 4 M# bdi_pad_loc[3:0] $end
$var reg 4 N# bdi_valid_bytes[3:0] $end
$var reg 3 O# bdi_size[2:0] $end
$var reg 1 P# bdi_eot $end
$var reg 1 Q# bdi_eoi $end
$var reg 4 R# bdi_type[3:0] $end
$var reg 1 S# decrypt_in $end
$var reg 1 T# key_update $end
$var reg 1 U# hash_in $end
$var reg 32 V# bdo[31:0] $end
$var reg 1 W# bdo_valid $end
$var reg 1 X# bdo_ready $end
$var reg 4 Y# bdo_type[3:0] $end
$var reg 4 Z# bdo_valid_bytes[3:0] $end
$var reg 1 [# end_of_block $end
$var reg 1 \# msg_auth_valid $end
$var reg 1 ]# msg_auth_ready $end
$var reg 1 ^# msg_auth $end
$var reg 1 _# tag_wen_s $end
$var reg 3 `# tag_addr_s[2:0] $end
$var reg 32 a# tag_din_s[31:0] $end
$var reg 32 b# tag_dout_s[31:0] $end
$var reg 32 c# data_to_tag_s[31:0] $end
$var reg 1 d# key_wen_s $end
$var reg 2 e# key_addr_s[1:0] $end
$var reg 32 f# key_din_s[31:0] $end
$var reg 32 g# key_dout_s[31:0] $end
$var reg 1 h# npub_wen_s $end
$var reg 2 i# npub_addr_s[1:0] $end
$var reg 32 j# npub_din_s[31:0] $end
$var reg 32 k# npub_dout_s[31:0] $end
$var reg 32 l# padd_npub_s[31:0] $end
$comment n_state_s is not handled $end
$comment state_s is not handled $end
$var reg 128 m# len_s[127:0] $end
$var reg 32 n# len_word_s[31:0] $end
$var reg 29 o# ad_byte_cnt_s[28:0] $end
$var reg 29 p# ad_byte_cnt_s_next[28:0] $end
$var reg 64 q# ad_bit_cnt_vec_s[63:0] $end
$var reg 29 r# msg_byte_cnt_s[28:0] $end
$var reg 29 s# msg_byte_cnt_s_next[28:0] $end
$var reg 64 t# msg_bit_cnt_vec_s[63:0] $end
$var reg 25 u# block_cnt_s[24:0] $end
$var reg 25 v# block_cnt_s_next[24:0] $end
$var reg 128 w# block_num_s[127:0] $end
$var reg 32 x# block_num_word_s[31:0] $end
$var integer 32 y# word_cnt_s $end
$var integer 32 z# word_cnt_s_next $end
$var reg 3 {# ram_addr_s[2:0] $end
$var reg 32 |# key_s[31:0] $end
$var reg 1 }# key_ready_s $end
$var reg 1 !$ bdi_ready_s $end
$var reg 32 "$ bdi_s[31:0] $end
$var reg 4 #$ bdi_valid_bytes_s[3:0] $end
$var reg 4 $$ bdi_pad_loc_s[3:0] $end
$var reg 32 %$ bdo_s[31:0] $end
$var reg 4 &$ bdo_valid_bytes_s[3:0] $end
$var reg 1 '$ bdo_valid_s $end
$var reg 4 ($ bdo_type_s[3:0] $end
$var reg 1 )$ end_of_block_s $end
$var reg 1 *$ msg_auth_valid_s $end
$var reg 1 +$ bdi_partial_s $end
$var reg 1 ,$ n_decrypt_s $end
$var reg 1 -$ decrypt_s $end
$var reg 1 .$ n_hash_s $end
$var reg 1 /$ hash_s $end
$var reg 1 0$ n_empty_hash_s $end
$var reg 1 1$ empty_hash_s $end
$var reg 1 2$ n_msg_auth_s $end
$var reg 1 3$ msg_auth_s $end
$var reg 1 4$ n_eoi_s $end
$var reg 1 5$ eoi_s $end
$var reg 1 6$ n_update_key_s $end
$var reg 1 7$ update_key_s $end
$scope module i_tag_ram $end
$var reg 1 8$ clk $end
$var reg 1 9$ wen $end
$var reg 3 :$ addr[2:0] $end
$var reg 32 ;$ din[31:0] $end
$var reg 32 <$ dout[31:0] $end
$comment ram is not handled $end
$upscope $end
$scope module i_key_ram $end
$var reg 1 =$ clk $end
$var reg 1 >$ wen $end
$var reg 2 ?$ addr[1:0] $end
$var reg 32 @$ din[31:0] $end
$var reg 32 A$ dout[31:0] $end
$comment ram is not handled $end
$upscope $end
$scope module i_npub_ram $end
$var reg 1 B$ clk $end
$var reg 1 C$ wen $end
$var reg 2 D$ addr[1:0] $end
$var reg 32 E$ din[31:0] $end
$var reg 32 F$ dout[31:0] $end
$comment ram is not handled $end
$upscope $end
$scope module gen_p_reg_sync_rst $end
$upscope $end
$scope module gen_p_counters_sync_rst $end
$upscope $end
$upscope $end
$scope module inst_postprocessor $end
$var reg 1 G$ clk $end
$var reg 1 H$ rst $end
$var reg 32 I$ bdo[31:0] $end
$var reg 1 J$ bdo_valid $end
$var reg 1 K$ bdo_ready $end
$var reg 1 L$ end_of_block $end
$var reg 4 M$ bdo_valid_bytes[3:0] $end
$var reg 1 N$ msg_auth $end
$var reg 1 O$ msg_auth_ready $end
$var reg 1 P$ msg_auth_valid $end
$var reg 32 Q$ cmd[31:0] $end
$var reg 1 R$ cmd_valid $end
$var reg 1 S$ cmd_ready $end
$var reg 32 T$ do_data[31:0] $end
$var reg 1 U$ do_valid $end
$var reg 1 V$ do_last $end
$var reg 1 W$ do_ready $end
$var reg 32 X$ do_data_internal[31:0] $end
$var reg 1 Y$ do_valid_internal $end
$var reg 32 Z$ bdo_cleared[31:0] $end
$var reg 1 [$ len_seglencnt $end
$var reg 1 \$ en_seglencnt $end
$var reg 16 ]$ dout_seglencnt[15:0] $end
$var reg 16 ^$ load_seglencnt[15:0] $end
$var reg 1 _$ last_flit_of_segment $end
$var reg 1 `$ decrypt $end
$var reg 1 a$ nx_decrypt $end
$var reg 1 b$ eot $end
$var reg 1 c$ nx_eot $end
$scope module seglen $end
$var reg 1 d$ clk $end
$var reg 1 e$ len $end
$var reg 1 f$ ena $end
$var reg 16 g$ load[15:0] $end
$var reg 16 h$ count[15:0] $end
$var reg 16 i$ qtemp[15:0] $end
$upscope $end
$scope module fsm_32bit $end
$var reg 1 j$ bdo_valid_p $end
$var reg 1 k$ bdo_ready_p $end
$var reg 32 l$ bdo_p[31:0] $end
$comment nx_state is not handled $end
$comment pr_state is not handled $end
$scope module bdosipo $end
$var reg 1 m$ clk $end
$var reg 1 n$ rst $end
$var reg 1 o$ end_of_input $end
$var reg 32 p$ data_p[31:0] $end
$var reg 1 q$ data_valid_p $end
$var reg 1 r$ data_ready_p $end
$var reg 32 s$ data_s[31:0] $end
$var reg 1 t$ data_valid_s $end
$var reg 1 u$ data_ready_s $end
$comment nx_state is not handled $end
$comment state is not handled $end
$var integer 32 v$ mux $end
$var reg 24 w$ reg[31:8] $end
$scope module ccw32 $end
$upscope $end
$upscope $end
$scope module gen_proc_sync_rst $end
$upscope $end
$upscope $end
$upscope $end
$scope module inst_header_fifo $end
$var reg 1 x$ clk $end
$var reg 1 y$ rst $end
$var reg 32 z$ din[31:0] $end
$var reg 1 {$ din_valid $end
$var reg 1 |$ din_ready $end
$var reg 32 }$ dout[31:0] $end
$var reg 1 !% dout_valid $end
$var reg 1 "% dout_ready $end
$comment mem_s is not handled $end
$comment mem_s_next is not handled $end
$var reg 1 #% din_ready_s $end
$var reg 1 $% dout_valid_s $end
$var reg 1 %% empty_s $end
$var reg 1 &% full_s $end
$var integer 32 '% wr_ptr_s $end
$var integer 32 (% wr_ptr_s_next $end
$var integer 32 )% rd_ptr_s $end
$var integer 32 *% rd_ptr_s_next $end
$var integer 32 +% entries_s $end
$var integer 32 ,% entries_s_next $end
$scope module gen_p_ptr_sync_rst $end
$upscope $end
$upscope $end
$upscope $end
$upscope $end
$enddefinitions $end
#0
0!
0"
1#
1$
1%
1&
b00000000000000000000000000000000 '
0(
1)
bUUUUUUUUUUUUUUUUUUUUUUUUUUUUUUUU *
0+
1,
bUUUUUUUUUUUUUUUUUUUUUUUUUUUUUUUU -
0.
0/
10
b00000000000000000000000000000000 1
02
13
bUUUUUUUUUUUUUUUUUUUUUUUUUUUUUUUU 4
05
06
bUUUUUUUUUUUUUUUUUUUUUUUUUUUUUUUU 7
08
09
0:
b00000000000000000000000000000000 ;
0<
0=
1>
1?
1@
0A
bUUUUUUUUUUUUUUUUUUUUUUUUUUUUUUUU B
0C
0D
0E
0F
0G
0H
b1 I
b0 J
1K
1L
b00000000000000000000000000000000 M
0N
1O
bUUUUUUUUUUUUUUUUUUUUUUUUUUUUUUUU P
0Q
1R
1S
0T
1U
0V
b0 W
b0 X
b0 Y
b0 Z
b0 [
b0 \
1]
1^
b00000000000000000000000000000000 _
0`
1a
bUUUUUUUUUUUUUUUUUUUUUUUUUUUUUUUU b
0c
0d
1e
0f
1g
0h
b0 i
b0 j
b0 k
b0 l
b0 m
b0 n
1o
1p
b00000000000000000000000000000000 q
0r
1s
bUUUUUUUUUUUUUUUUUUUUUUUUUUUUUUUU t
0u
0v
1w
0x
1y
0z
b0 {
b0 |
b0 }
b0 !"
b0 ""
b0 #"
1$"
1%"
bUUUUUUUUUUUUUUUUUUUUUUUUUUUUUUUU &"
0'"
1("
bUUUUUUUUUUUUUUUUUUUUUUUUUUUUUUUU )"
0*"
0+"
b00000000000000000000000000000000 ,"
1-"
0."
0/"
bUUUUUUUUUUUUUUUUUUUUUUUUUUUUUUUU 0"
01"
02"
bUUUUUUUUUUUUUUUUUUUUUUUUUUUUUUUU 3"
04"
05"
b1000 6"
b0000 7"
bUUU 8"
U9"
U:"
b0000 ;"
U<"
0="
0>"
b00000000000000000000000000000000 ?"
0@"
0A"
0B"
b0000 C"
0D"
0E"
1F"
bUUUUUUUUUUUUUUUUUUUUUUUUUUUUUUUU G"
0H"
1I"
bUUUUUUUUUUUUUUUUUUUUUUUUUUUUUUUU J"
0K"
1L"
1M"
1N"
bUUUUUUUUUUUUUUUUUUUUUUUUUUUUUUUU O"
0P"
1Q"
bUUUUUUUUUUUUUUUUUUUUUUUUUUUUUUUU R"
0S"
0T"
bUUUUUUUUUUUUUUUUUUUUUUUUUUUUUUUU U"
0V"
0W"
bUUUUUUUUUUUUUUUUUUUUUUUUUUUUUUUU X"
0Y"
0Z"
b1000 ["
b0000 \"
bUUU ]"
U^"
U_"
b0000 `"
Ua"
0b"
0c"
bUUUUUUUUUUUUUUUUUUUUUUUUUUUUUUUU d"
0e"
1f"
0g"
0h"
1i"
bUUUUUUUUUUUUUUUU j"
bUUUUUUUUUUUUUUUU k"
0l"
b0000 m"
b1000 n"
0o"
Up"
Uq"
Ur"
Us"
0t"
0u"
Uv"
Uw"
Ux"
Uy"
1z"
0{"
0|"
bUUUUUUUUUUUUUUUU }"
bUUUUUUUUUUUUUUUU !#
bUUUUUUUUUUUUUUUU "#
0##
0$#
0%#
0&#
bUUU '#
1(#
1)#
bUUUUUUUUUUUUUUUUUUUUUUUUUUUUUUUU *#
0+#
0,#
bUUUUUUUUUUUUUUUUUUUUUUUUUUUUUUUU -#
0.#
0/#
bUUU 0#
11#
12#
bUUU 3#
bUUU 4#
bUUUUUUUUUUUUUUUUUUUUUUUUUUUUUUUU 5#
06#
07#
bUUUUUUUUUUUUUUUUUUUUUUUUUUUUUUUU 8#
09#
0:#
b0000 ;#
b0000 <#
b1000 =#
b1000 >#
U?#
U@#
UA#
UB#
bUUU C#
UD#
1E#
1F#
bUUUUUUUUUUUUUUUUUUUUUUUUUUUUUUUU G#
0H#
0I#
bUUUUUUUUUUUUUUUUUUUUUUUUUUUUUUUU J#
0K#
0L#
b1000 M#
b0000 N#
bUUU O#
UP#
UQ#
b0000 R#
US#
0T#
0U#
b00000000000000000000000000000000 V#
0W#
0X#
b1000 Y#
b0000 Z#
0[#
0\#
0]#
1^#
0_#
b000 `#
bUUUUUUUUUUUUUUUUUUUUUUUUUUUUUUUU a#
bUUUUUUUUUUUUUUUUUUUUUUUUUUUUUUUU b#
b00000000000000000000000000000000 c#
0d#
b00 e#
bUUUUUUUUUUUUUUUUUUUUUUUUUUUUUUUU f#
bUUUUUUUUUUUUUUUUUUUUUUUUUUUUUUUU g#
0h#
b00 i#
bUUUUUUUUUUUUUUUUUUUUUUUUUUUUUUUU j#
bUUUUUUUUUUUUUUUUUUUUUUUUUUUUUUUU k#
bUUUUUUUUUUUUUUUUUUUUUUUUUUUUUUUU l#
b00000000000000000000000000000000000000000000000000000000000000000000000000000000000000000000000000000000000000000000000000000000 m#
b-------------------------------- n#
b00000000000000000000000000000 o#
b00000000000000000000000000000 p#
b0000000000000000000000000000000000000000000000000000000000000000 q#
b00000000000000000000000000000 r#
b00000000000000000000000000000 s#
b0000000000000000000000000000000000000000000000000000000000000000 t#
b0000000000000000000000001 u#
b0000000000000000000000001 v#
b00000001000000000000000000000000000000000000000000000000000000000000000000000000000000000000000000000000000000000000000000000000 w#
b-------------------------------- x#
b0 y#
b0 z#
b000 {#
bUUUUUUUUUUUUUUUUUUUUUUUUUUUUUUUU |#
0}#
0!$
bUUUUUUUUUUUUUUUUUUUUUUUUUUUUUUUU "$
b0000 #$
b0001 $$
b00000000000000000000000000000000 %$
b0000 &$
0'$
b1000 ($
0)$
0*$
1+$
0,$
0-$
0.$
0/$
00$
01$
12$
13$
04$
05$
06$
07$
18$
09$
b000 :$
bUUUUUUUUUUUUUUUUUUUUUUUUUUUUUUUU ;$
bUUUUUUUUUUUUUUUUUUUUUUUUUUUUUUUU <$
1=$
0>$
b00 ?$
bUUUUUUUUUUUUUUUUUUUUUUUUUUUUUUUU @$
bUUUUUUUUUUUUUUUUUUUUUUUUUUUUUUUU A$
1B$
0C$
b00 D$
bUUUUUUUUUUUUUUUUUUUUUUUUUUUUUUUU E$
bUUUUUUUUUUUUUUUUUUUUUUUUUUUUUUUU F$
1G$
1H$
b00000000000000000000000000000000 I$
0J$
0K$
0L$
b0000 M$
1N$
0O$
0P$
bUUUUUUUUUUUUUUUUUUUUUUUUUUUUUUUU Q$
0R$
1S$
b00000000000000000000000000000000 T$
0U$
0V$
1W$
b-------------------------------- X$
0Y$
b00000000000000000000000000000000 Z$
0[$
0\$
bUUUUUUUUUUUUUUUU ]$
bUUUUUUUUUUUUUUUU ^$
1_$
U`$
Ua$
Ub$
Uc$
1d$
0e$
0f$
bUUUUUUUUUUUUUUUU g$
bUUUUUUUUUUUUUUUU h$
bUUUUUUUUUUUUUUUU i$
0j$
0k$
b00000000000000000000000000000000 l$
1m$
1n$
0o$
b00000000000000000000000000000000 p$
0q$
0r$
b00000000000000000000000000000000 s$
0t$
0u$
b1 v$
bUUUUUUUUUUUUUUUUUUUUUUUU w$
1x$
1y$
bUUUUUUUUUUUUUUUUUUUUUUUUUUUUUUUU z$
0{$
1|$
bUUUUUUUUUUUUUUUUUUUUUUUUUUUUUUUU }$
0!%
1"%
1#%
0$%
1%%
0&%
b0 '%
b0 (%
b0 )%
b0 *%
b0 +%
b0 ,%
#5000000
0$
0%
0K
0]
0o
0$"
0M"
0z"
0(#
01#
0E#
08$
0=$
0B$
0G$
0d$
0m$
0x$
#10000000
1$
1%
b10 I
1K
1]
1o
1$"
1M"
1z"
1(#
11#
1E#
18$
1=$
1B$
1G$
1d$
1m$
1x$
#15000000
0$
0%
0K
0]
0o
0$"
0M"
0z"
0(#
01#
0E#
08$
0=$
0B$
0G$
0d$
0m$
0x$
#20000000
1$
1%
b11 I
1K
1]
1o
1$"
1M"
1z"
1(#
11#
1E#
18$
1=$
1B$
1G$
1d$
1m$
1x$
#25000000
0$
0%
0K
0]
0o
0$"
0M"
0z"
0(#
01#
0E#
08$
0=$
0B$
0G$
0d$
0m$
0x$
#30000000
1$
1%
b100 I
1K
1]
1o
1$"
1M"
1z"
1(#
11#
1E#
18$
1=$
1B$
1G$
1d$
1m$
1x$
#35000000
0$
0%
0K
0]
0o
0$"
0M"
0z"
0(#
01#
0E#
08$
0=$
0B$
0G$
0d$
0m$
0x$
#40000000
1$
1%
b101 I
1K
1]
1o
1$"
1M"
1z"
1(#
11#
1E#
18$
1=$
1B$
1G$
1d$
1m$
1x$
#45000000
0$
0%
0K
0]
0o
0$"
0M"
0z"
0(#
01#
0E#
08$
0=$
0B$
0G$
0d$
0m$
0x$
#50000000
1$
1%
0&
b110 I
1K
0L
1]
0^
1o
0p
1$"
0%"
1M"
0N"
1z"
1(#
0)#
11#
02#
1E#
0F#
18$
1=$
1B$
1G$
0H$
1d$
1m$
0n$
1x$
0y$
#55000000
0$
0%
0K
0]
0o
0$"
0M"
0z"
0(#
01#
0E#
08$
0=$
0B$
0G$
0d$
0m$
0x$
#60000000
1$
1%
b111 I
1K
1]
1o
1$"
1M"
1z"
1(#
11#
1E#
18$
1=$
1B$
1G$
1d$
1m$
1x$
#65000000
0$
0%
b01110000000000000000000000000000 '
1(
0K
b01110000000000000000000000000000 M
1N
b1 X
b1 \
0]
0o
0$"
0M"
0z"
0(#
01#
0E#
08$
0=$
0B$
0G$
0d$
0m$
0x$
#70000000
1$
1%
b01110000000000000000000000000000 *
1+
b01110000000000000000000000000000 -
1.
1/
b1000 I
1K
b01110000000000000000000000000000 P
1Q
1T
0U
b1 W
b10 X
b1 Z
b1 [
b1 \
1]
1o
1$"
b01110000000000000000000000000000 &"
1'"
1("
b01110000000000000000000000000000 3"
b01110000000000000000000000000000 G"
1M"
b01110000000000000000000000000000 O"
1P"
1Q"
b01110000000000000000000000000000 X"
b01110000000000000000000000000000 d"
b0000000000000000 k"
1z"
b0000000000000000 }"
1(#
11#
b01110000000000000000000000000000 5#
b01110000000000000000000000000000 8#
1E#
b01110000000000000000000000000000 J#
b00000000000000000000000001110000 j#
b00000000000000000000000001110000 "$
18$
1=$
1B$
b00000000000000000000000001110000 E$
1G$
1d$
1m$
1x$
b01110000000000000000000000000000 z$
#75000000
0$
0%
b00100000000000000000000000000000 '
b01000000000000000000000000000000 1
12
0K
b00100000000000000000000000000000 M
0]
b01000000000000000000000000000000 _
1`
b1 j
b1 n
0o
0$"
0M"
0z"
0(#
01#
0E#
08$
0=$
0B$
0G$
0d$
0m$
0x$
#80000000
1$
1%
b00100000000000000000000000000000 *
0,
b00100000000000000000000000000000 -
00
b01000000000000000000000000000000 4
15
16
b01000000000000000000000000000000 7
18
19
1:
b1001 I
1K
b00100000000000000000000000000000 P
0R
b10 W
b11 X
b1 Y
b1 Z
b10 \
1]
b01000000000000000000000000000000 b
1c
1d
1f
0g
b1 i
b10 j
b1 l
b1 m
b1 n
1o
1$"
b00100000000000000000000000000000 &"
0("
b01000000000000000000000000000000 )"
1*"
1+"
b01000000000000000000000000000000 0"
b00100000000000000000000000000000 3"
b00100000000000000000000000000000 G"
1M"
b00100000000000000000000000000000 O"
0Q"
b01000000000000000000000000000000 R"
1S"
1T"
b01000000000000000000000000000000 U"
b00100000000000000000000000000000 X"
b00100000000000000000000000000000 d"
1z"
1(#
b01000000000000000000000000000000 *#
b01000000000000000000000000000000 -#
11#
b00100000000000000000000000000000 5#
b00100000000000000000000000000000 8#
1E#
b01000000000000000000000000000000 G#
b00100000000000000000000000000000 J#
b00000000000000000000000001000000 f#
b00000000000000000000000000100000 j#
b00000000000000000000000001000000 |#
b00000000000000000000000000100000 "$
18$
1=$
b00000000000000000000000001000000 @$
1B$
b00000000000000000000000000100000 E$
1G$
1d$
1m$
1x$
b00100000000000000000000000000000 z$
#85000000
0$
0%
b11010110000000000000000000001100 '
b11000111000000000000000000010000 1
0K
b11010110000000000000000000001100 M
0]
b11000111000000000000000000010000 _
0o
0$"
0M"
0z"
0(#
01#
0E#
08$
0=$
0B$
0G$
0d$
0m$
0x$
